{
  "words": [
    "A",
    "B",
    "C",
    "D",
    "Answer",
    "?",
    "Given that...",
    "The clue is...",
    "a",
    "b",
    "c",
    "d",
    "??",
    "World",
    "Language",
    "Chemistry",
    "Math",
    "Biology",
    "Computer",
    "History",
    "Music",
    "BioChemistry",
    "Sports",
    "Geography",
    "I think...",
    "I assume...",
    "I remeber...",
    "The textbook...",
    "The teacher said..."
  ]
}
				